^C:\USERS\TOMEK\DOCUMENTS\VISUAL STUDIO 2013\PROJECTS\INSERTMAKER\INSERTMAKER\MAIN.CPP
/c /ZI /nologo /W3 /WX- /Od /Oy- /D WIN32 /D _DEBUG /D _CONSOLE /D _UNICODE /D UNICODE /Gm /EHsc /RTC1 /MDd /GS /fp:precise /Zc:wchar_t /Zc:forScope /Fo"DEBUG\\" /Fd"DEBUG\VC120.PDB" /Gd /TP /analyze- C:\USERS\TOMEK\DOCUMENTS\VISUAL STUDIO 2013\PROJECTS\INSERTMAKER\INSERTMAKER\MAIN.CPP
^C:\USERS\TOMEK\DOCUMENTS\VISUAL STUDIO 2013\PROJECTS\INSERTMAKER\INSERTMAKER\MAINCLASS.CPP
/c /ZI /nologo /W3 /WX- /Od /Oy- /D WIN32 /D _DEBUG /D _CONSOLE /D _UNICODE /D UNICODE /Gm /EHsc /RTC1 /MDd /GS /fp:precise /Zc:wchar_t /Zc:forScope /Fo"DEBUG\\" /Fd"DEBUG\VC120.PDB" /Gd /TP /analyze- C:\USERS\TOMEK\DOCUMENTS\VISUAL STUDIO 2013\PROJECTS\INSERTMAKER\INSERTMAKER\MAINCLASS.CPP
^C:\USERS\TOMEK\DOCUMENTS\VISUAL STUDIO 2013\PROJECTS\INSERTMAKER\INSERTMAKER\TABLE.CPP
/c /ZI /nologo /W3 /WX- /Od /Oy- /D WIN32 /D _DEBUG /D _CONSOLE /D _UNICODE /D UNICODE /Gm /EHsc /RTC1 /MDd /GS /fp:precise /Zc:wchar_t /Zc:forScope /Fo"DEBUG\\" /Fd"DEBUG\VC120.PDB" /Gd /TP /analyze- C:\USERS\TOMEK\DOCUMENTS\VISUAL STUDIO 2013\PROJECTS\INSERTMAKER\INSERTMAKER\TABLE.CPP
