^C:\USERS\TOMEK\DOCUMENTS\VISUAL STUDIO 2013\PROJECTS\INSERTMAKER\INSERTMAKER\MAIN.CPP|C:\USERS\TOMEK\DOCUMENTS\VISUAL STUDIO 2013\PROJECTS\INSERTMAKER\INSERTMAKER\MAINCLASS.CPP|C:\USERS\TOMEK\DOCUMENTS\VISUAL STUDIO 2013\PROJECTS\INSERTMAKER\INSERTMAKER\TABLE.CPP
C:\USERS\TOMEK\DOCUMENTS\VISUAL STUDIO 2013\PROJECTS\INSERTMAKER\INSERTMAKER\DEBUG\VC120.PDB
C:\USERS\TOMEK\DOCUMENTS\VISUAL STUDIO 2013\PROJECTS\INSERTMAKER\INSERTMAKER\DEBUG\VC120.IDB
C:\USERS\TOMEK\DOCUMENTS\VISUAL STUDIO 2013\PROJECTS\INSERTMAKER\INSERTMAKER\DEBUG\MAIN.OBJ
C:\USERS\TOMEK\DOCUMENTS\VISUAL STUDIO 2013\PROJECTS\INSERTMAKER\INSERTMAKER\DEBUG\MAINCLASS.OBJ
C:\USERS\TOMEK\DOCUMENTS\VISUAL STUDIO 2013\PROJECTS\INSERTMAKER\INSERTMAKER\DEBUG\TABLE.OBJ
^C:\USERS\TOMEK\DOCUMENTS\VISUAL STUDIO 2013\PROJECTS\INSERTMAKER\INSERTMAKER\MAIN.CPP
C:\USERS\TOMEK\DOCUMENTS\VISUAL STUDIO 2013\PROJECTS\INSERTMAKER\INSERTMAKER\DEBUG\VC120.PDB
^C:\USERS\TOMEK\DOCUMENTS\VISUAL STUDIO 2013\PROJECTS\INSERTMAKER\INSERTMAKER\MAINCLASS.CPP
C:\USERS\TOMEK\DOCUMENTS\VISUAL STUDIO 2013\PROJECTS\INSERTMAKER\INSERTMAKER\DEBUG\VC120.PDB
C:\USERS\TOMEK\DOCUMENTS\VISUAL STUDIO 2013\PROJECTS\INSERTMAKER\INSERTMAKER\DEBUG\VC120.IDB
C:\USERS\TOMEK\DOCUMENTS\VISUAL STUDIO 2013\PROJECTS\INSERTMAKER\INSERTMAKER\DEBUG\MAINCLASS.OBJ
^C:\USERS\TOMEK\DOCUMENTS\VISUAL STUDIO 2013\PROJECTS\INSERTMAKER\INSERTMAKER\TABLE.CPP
C:\USERS\TOMEK\DOCUMENTS\VISUAL STUDIO 2013\PROJECTS\INSERTMAKER\INSERTMAKER\DEBUG\VC120.PDB
C:\USERS\TOMEK\DOCUMENTS\VISUAL STUDIO 2013\PROJECTS\INSERTMAKER\INSERTMAKER\DEBUG\VC120.IDB
C:\USERS\TOMEK\DOCUMENTS\VISUAL STUDIO 2013\PROJECTS\INSERTMAKER\INSERTMAKER\DEBUG\TABLE.OBJ
